<?xml version="1.0" encoding="UTF-8"?>
<testng-results ignored="0" total="4" passed="4" failed="0" skipped="0">
  <reporter-output>
    <line>
      <![CDATA[Request URL: https://gorest.co.in/public-api/users]]>
    </line>
    <line>
      <![CDATA[Request body: {"name":"Test","email":"Test@example.com","gender":"Male","status":"Active"}]]>
    </line>
    <line>
      <![CDATA[Request headers: Accept=application/json, application/javascript, text/javascript, text/json
Content-Type=application/json
Authorization=Bearer a2d62ecfe2b61dd4efa5e017f2ab587c0ff4a2a4c26c6a70d7696a7c56c637dc]]>
    </line>
    <line>
      <![CDATA[Response status code: 200]]>
    </line>
    <line>
      <![CDATA[Response body: {"code":201,"meta":null,"data":{"id":2028,"name":"Test","email":"Test@example.com","gender":"Male","status":"Active","created_at":"2021-02-02T21:37:35.521+05:30","updated_at":"2021-02-02T21:37:35.521+05:30"}}]]>
    </line>
    <line>
      <![CDATA[Request URL: https://gorest.co.in/public-api/users]]>
    </line>
    <line>
      <![CDATA[Request body: null]]>
    </line>
    <line>
      <![CDATA[Request headers: Accept=application/json, application/javascript, text/javascript, text/json
Content-Type=application/json
Authorization=Bearer a2d62ecfe2b61dd4efa5e017f2ab587c0ff4a2a4c26c6a70d7696a7c56c637dc]]>
    </line>
    <line>
      <![CDATA[Response status code: 200]]>
    </line>
    <line>
      <![CDATA[Response body: {"code":404,"meta":null,"data":{"message":"Resource not found"}}]]>
    </line>
    <line>
      <![CDATA[Request URL: https://gorest.co.in/public-api/users]]>
    </line>
    <line>
      <![CDATA[Request body: null]]>
    </line>
    <line>
      <![CDATA[Request headers: Accept=application/json, application/javascript, text/javascript, text/json
Content-Type=application/json
Authorization=Bearer a2d62ecfe2b61dd4efa5e017f2ab587c0ff4a2a4c26c6a70d7696a7c56c637dc]]>
    </line>
    <line>
      <![CDATA[Response status code: 200]]>
    </line>
    <line>
      <![CDATA[Response body: {"code":200,"meta":{"pagination":{"total":1605,"pages":81,"page":1,"limit":20}},"data":[{"id":137,"name":"patrick","email":"shukla_paramartha@kassulke.com","gender":"Male","status":"Active","created_at":"2021-02-02T03:50:06.148+05:30","updated_at":"2021-02-02T21:14:18.953+05:30"},{"id":140,"name":"Dhatri Prajapat","email":"dhatri_prajapat@daugherty.biz","gender":"Female","status":"Inactive","created_at":"2021-02-02T03:50:06.195+05:30","updated_at":"2021-02-02T03:50:06.195+05:30"},{"id":141,"name":"Agnimitra Khanna","email":"agnimitra_khanna@kirlin-ebert.net","gender":"Male","status":"Inactive","created_at":"2021-02-02T03:50:06.197+05:30","updated_at":"2021-02-02T03:50:06.197+05:30"},{"id":143,"name":"Tejas Deshpande","email":"tejas_deshpande@lockman.co","gender":"Male","status":"Inactive","created_at":"2021-02-02T03:50:06.207+05:30","updated_at":"2021-02-02T03:50:06.207+05:30"},{"id":145,"name":"Uma Menon","email":"uma_menon@ernser.name","gender":"Female","status":"Inactive","created_at":"2021-02-02T03:50:06.233+05:30","updated_at":"2021-02-02T03:50:06.233+05:30"},{"id":147,"name":"Gautama Bandopadhyay","email":"gautama_bandopadhyay@bruen-skiles.name","gender":"Male","status":"Active","created_at":"2021-02-02T03:50:06.273+05:30","updated_at":"2021-02-02T03:50:06.273+05:30"},{"id":148,"name":"Bilwa Pothuvaal","email":"bilwa_pothuvaal@corwin.io","gender":"Female","status":"Inactive","created_at":"2021-02-02T03:50:06.281+05:30","updated_at":"2021-02-02T03:50:06.281+05:30"},{"id":150,"name":"Sloka Achari","email":"achari_sloka@ebert.biz","gender":"Male","status":"Active","created_at":"2021-02-02T03:50:06.325+05:30","updated_at":"2021-02-02T03:50:06.325+05:30"},{"id":151,"name":"Minakshi Chopra LLD","email":"minakshi_lld_chopra@rice.net","gender":"Female","status":"Active","created_at":"2021-02-02T03:50:06.350+05:30","updated_at":"2021-02-02T03:50:06.350+05:30"},{"id":152,"name":"MLG2","email":"MLG2@getnada.com","gender":"Male","status":"Active","created_at":"2021-02-02T03:50:06.378+05:30","updated_at":"2021-02-02T21:34:18.249+05:30"},{"id":153,"name":"Daiwik Rana CPA","email":"rana_daiwik_cpa@metz-wunsch.net","gender":"Female","status":"Inactive","created_at":"2021-02-02T03:50:06.383+05:30","updated_at":"2021-02-02T03:50:06.383+05:30"},{"id":154,"name":"Chandra Kakkar","email":"chandra_kakkar@pouros-konopelski.io","gender":"Female","status":"Active","created_at":"2021-02-02T03:50:06.402+05:30","updated_at":"2021-02-02T03:50:06.402+05:30"},{"id":155,"name":"Chandan Abbott","email":"abbott_chandan@christiansen.org","gender":"Male","status":"Active","created_at":"2021-02-02T03:50:06.405+05:30","updated_at":"2021-02-02T03:50:06.405+05:30"},{"id":156,"name":"Tarun Sethi","email":"sethi_tarun@walter-dach.co","gender":"Female","status":"Inactive","created_at":"2021-02-02T03:50:06.433+05:30","updated_at":"2021-02-02T03:50:06.433+05:30"},{"id":157,"name":"Bhargavi Butt","email":"bhargavi_butt@bartell-toy.info","gender":"Male","status":"Inactive","created_at":"2021-02-02T03:50:06.436+05:30","updated_at":"2021-02-02T03:50:06.436+05:30"},{"id":158,"name":"Gotum Kakkar","email":"gotum_kakkar@bode-reichel.com","gender":"Female","status":"Active","created_at":"2021-02-02T03:50:06.454+05:30","updated_at":"2021-02-02T03:50:06.454+05:30"},{"id":159,"name":"Amb. Vaijayanthi Verma","email":"amb_verma_vaijayanthi@ziemann.io","gender":"Female","status":"Inactive","created_at":"2021-02-02T03:50:06.465+05:30","updated_at":"2021-02-02T03:50:06.465+05:30"},{"id":160,"name":"Suryakantam Kaur","email":"suryakantam_kaur@schmidt-smitham.info","gender":"Male","status":"Inactive","created_at":"2021-02-02T03:50:06.474+05:30","updated_at":"2021-02-02T03:50:06.474+05:30"},{"id":161,"name":"Bilva Rana","email":"bilva_rana@wolff.io","gender":"Female","status":"Inactive","created_at":"2021-02-02T03:50:06.487+05:30","updated_at":"2021-02-02T03:50:06.487+05:30"},{"id":162,"name":"Manoj Guha Sr.","email":"sr_guha_manoj@sporer-dickinson.org","gender":"Male","status":"Active","created_at":"2021-02-02T03:50:06.505+05:30","updated_at":"2021-02-02T03:50:06.505+05:30"}]}]]>
    </line>
    <line>
      <![CDATA[Request URL: https://gorest.co.in/public-api/users]]>
    </line>
    <line>
      <![CDATA[Request body: {"name":"User Not Found","email":"404@error.com","gender":"Male","status":"Active"}]]>
    </line>
    <line>
      <![CDATA[Request headers: Accept=application/json, application/javascript, text/javascript, text/json
Content-Type=application/json
Authorization=Bearer a2d62ecfe2b61dd4efa5e017f2ab587c0ff4a2a4c26c6a70d7696a7c56c637dc]]>
    </line>
    <line>
      <![CDATA[Response status code: 404]]>
    </line>
    <line>
      <![CDATA[Response body: ]]>
    </line>
  </reporter-output>
  <suite started-at="2021-02-02T11:07:31 EST" name="Default suite" finished-at="2021-02-02T11:07:40 EST" duration-ms="8449">
    <groups>
    </groups>
    <test started-at="2021-02-02T11:07:31 EST" name="Default test" finished-at="2021-02-02T11:07:40 EST" duration-ms="8449">
      <class name="com.api.tests.UsersTest">
        <test-method is-config="true" signature="beforeClass(org.testng.ITestContext)[pri:0, instance:com.api.tests.UsersTest@5f683daf]" started-at="2021-02-02T11:07:31 EST" name="beforeClass" finished-at="2021-02-02T11:07:32 EST" duration-ms="632" status="PASS">
          <params>
            <param index="0">
              <value>
                <![CDATA[org.testng.TestRunner@65a9ea3c]]>
              </value>
            </param>
          </params>
          <reporter-output>
          </reporter-output>
        </test-method> <!-- beforeClass -->
        <test-method signature="createUser()[pri:0, instance:com.api.tests.UsersTest@5f683daf]" started-at="2021-02-02T11:07:32 EST" name="createUser" finished-at="2021-02-02T11:07:35 EST" duration-ms="3288" status="PASS">
          <reporter-output>
            <line>
              <![CDATA[Request URL: https://gorest.co.in/public-api/users]]>
            </line>
            <line>
              <![CDATA[Request body: {"name":"Test","email":"Test@example.com","gender":"Male","status":"Active"}]]>
            </line>
            <line>
              <![CDATA[Request headers: Accept=application/json, application/javascript, text/javascript, text/json
Content-Type=application/json
Authorization=Bearer a2d62ecfe2b61dd4efa5e017f2ab587c0ff4a2a4c26c6a70d7696a7c56c637dc]]>
            </line>
            <line>
              <![CDATA[Response status code: 200]]>
            </line>
            <line>
              <![CDATA[Response body: {"code":201,"meta":null,"data":{"id":2028,"name":"Test","email":"Test@example.com","gender":"Male","status":"Active","created_at":"2021-02-02T21:37:35.521+05:30","updated_at":"2021-02-02T21:37:35.521+05:30"}}]]>
            </line>
          </reporter-output>
        </test-method> <!-- createUser -->
        <test-method signature="deleteUser()[pri:0, instance:com.api.tests.UsersTest@5f683daf]" started-at="2021-02-02T11:07:35 EST" name="deleteUser" finished-at="2021-02-02T11:07:37 EST" duration-ms="1520" status="PASS">
          <reporter-output>
            <line>
              <![CDATA[Request URL: https://gorest.co.in/public-api/users]]>
            </line>
            <line>
              <![CDATA[Request body: null]]>
            </line>
            <line>
              <![CDATA[Request headers: Accept=application/json, application/javascript, text/javascript, text/json
Content-Type=application/json
Authorization=Bearer a2d62ecfe2b61dd4efa5e017f2ab587c0ff4a2a4c26c6a70d7696a7c56c637dc]]>
            </line>
            <line>
              <![CDATA[Response status code: 200]]>
            </line>
            <line>
              <![CDATA[Response body: {"code":404,"meta":null,"data":{"message":"Resource not found"}}]]>
            </line>
          </reporter-output>
        </test-method> <!-- deleteUser -->
        <test-method signature="getUsers()[pri:0, instance:com.api.tests.UsersTest@5f683daf]" started-at="2021-02-02T11:07:37 EST" name="getUsers" finished-at="2021-02-02T11:07:38 EST" duration-ms="1503" status="PASS">
          <reporter-output>
            <line>
              <![CDATA[Request URL: https://gorest.co.in/public-api/users]]>
            </line>
            <line>
              <![CDATA[Request body: null]]>
            </line>
            <line>
              <![CDATA[Request headers: Accept=application/json, application/javascript, text/javascript, text/json
Content-Type=application/json
Authorization=Bearer a2d62ecfe2b61dd4efa5e017f2ab587c0ff4a2a4c26c6a70d7696a7c56c637dc]]>
            </line>
            <line>
              <![CDATA[Response status code: 200]]>
            </line>
            <line>
              <![CDATA[Response body: {"code":200,"meta":{"pagination":{"total":1605,"pages":81,"page":1,"limit":20}},"data":[{"id":137,"name":"patrick","email":"shukla_paramartha@kassulke.com","gender":"Male","status":"Active","created_at":"2021-02-02T03:50:06.148+05:30","updated_at":"2021-02-02T21:14:18.953+05:30"},{"id":140,"name":"Dhatri Prajapat","email":"dhatri_prajapat@daugherty.biz","gender":"Female","status":"Inactive","created_at":"2021-02-02T03:50:06.195+05:30","updated_at":"2021-02-02T03:50:06.195+05:30"},{"id":141,"name":"Agnimitra Khanna","email":"agnimitra_khanna@kirlin-ebert.net","gender":"Male","status":"Inactive","created_at":"2021-02-02T03:50:06.197+05:30","updated_at":"2021-02-02T03:50:06.197+05:30"},{"id":143,"name":"Tejas Deshpande","email":"tejas_deshpande@lockman.co","gender":"Male","status":"Inactive","created_at":"2021-02-02T03:50:06.207+05:30","updated_at":"2021-02-02T03:50:06.207+05:30"},{"id":145,"name":"Uma Menon","email":"uma_menon@ernser.name","gender":"Female","status":"Inactive","created_at":"2021-02-02T03:50:06.233+05:30","updated_at":"2021-02-02T03:50:06.233+05:30"},{"id":147,"name":"Gautama Bandopadhyay","email":"gautama_bandopadhyay@bruen-skiles.name","gender":"Male","status":"Active","created_at":"2021-02-02T03:50:06.273+05:30","updated_at":"2021-02-02T03:50:06.273+05:30"},{"id":148,"name":"Bilwa Pothuvaal","email":"bilwa_pothuvaal@corwin.io","gender":"Female","status":"Inactive","created_at":"2021-02-02T03:50:06.281+05:30","updated_at":"2021-02-02T03:50:06.281+05:30"},{"id":150,"name":"Sloka Achari","email":"achari_sloka@ebert.biz","gender":"Male","status":"Active","created_at":"2021-02-02T03:50:06.325+05:30","updated_at":"2021-02-02T03:50:06.325+05:30"},{"id":151,"name":"Minakshi Chopra LLD","email":"minakshi_lld_chopra@rice.net","gender":"Female","status":"Active","created_at":"2021-02-02T03:50:06.350+05:30","updated_at":"2021-02-02T03:50:06.350+05:30"},{"id":152,"name":"MLG2","email":"MLG2@getnada.com","gender":"Male","status":"Active","created_at":"2021-02-02T03:50:06.378+05:30","updated_at":"2021-02-02T21:34:18.249+05:30"},{"id":153,"name":"Daiwik Rana CPA","email":"rana_daiwik_cpa@metz-wunsch.net","gender":"Female","status":"Inactive","created_at":"2021-02-02T03:50:06.383+05:30","updated_at":"2021-02-02T03:50:06.383+05:30"},{"id":154,"name":"Chandra Kakkar","email":"chandra_kakkar@pouros-konopelski.io","gender":"Female","status":"Active","created_at":"2021-02-02T03:50:06.402+05:30","updated_at":"2021-02-02T03:50:06.402+05:30"},{"id":155,"name":"Chandan Abbott","email":"abbott_chandan@christiansen.org","gender":"Male","status":"Active","created_at":"2021-02-02T03:50:06.405+05:30","updated_at":"2021-02-02T03:50:06.405+05:30"},{"id":156,"name":"Tarun Sethi","email":"sethi_tarun@walter-dach.co","gender":"Female","status":"Inactive","created_at":"2021-02-02T03:50:06.433+05:30","updated_at":"2021-02-02T03:50:06.433+05:30"},{"id":157,"name":"Bhargavi Butt","email":"bhargavi_butt@bartell-toy.info","gender":"Male","status":"Inactive","created_at":"2021-02-02T03:50:06.436+05:30","updated_at":"2021-02-02T03:50:06.436+05:30"},{"id":158,"name":"Gotum Kakkar","email":"gotum_kakkar@bode-reichel.com","gender":"Female","status":"Active","created_at":"2021-02-02T03:50:06.454+05:30","updated_at":"2021-02-02T03:50:06.454+05:30"},{"id":159,"name":"Amb. Vaijayanthi Verma","email":"amb_verma_vaijayanthi@ziemann.io","gender":"Female","status":"Inactive","created_at":"2021-02-02T03:50:06.465+05:30","updated_at":"2021-02-02T03:50:06.465+05:30"},{"id":160,"name":"Suryakantam Kaur","email":"suryakantam_kaur@schmidt-smitham.info","gender":"Male","status":"Inactive","created_at":"2021-02-02T03:50:06.474+05:30","updated_at":"2021-02-02T03:50:06.474+05:30"},{"id":161,"name":"Bilva Rana","email":"bilva_rana@wolff.io","gender":"Female","status":"Inactive","created_at":"2021-02-02T03:50:06.487+05:30","updated_at":"2021-02-02T03:50:06.487+05:30"},{"id":162,"name":"Manoj Guha Sr.","email":"sr_guha_manoj@sporer-dickinson.org","gender":"Male","status":"Active","created_at":"2021-02-02T03:50:06.505+05:30","updated_at":"2021-02-02T03:50:06.505+05:30"}]}]]>
            </line>
          </reporter-output>
        </test-method> <!-- getUsers -->
        <test-method signature="updateUser()[pri:0, instance:com.api.tests.UsersTest@5f683daf]" started-at="2021-02-02T11:07:38 EST" name="updateUser" finished-at="2021-02-02T11:07:40 EST" duration-ms="1481" status="PASS">
          <reporter-output>
            <line>
              <![CDATA[Request URL: https://gorest.co.in/public-api/users]]>
            </line>
            <line>
              <![CDATA[Request body: {"name":"User Not Found","email":"404@error.com","gender":"Male","status":"Active"}]]>
            </line>
            <line>
              <![CDATA[Request headers: Accept=application/json, application/javascript, text/javascript, text/json
Content-Type=application/json
Authorization=Bearer a2d62ecfe2b61dd4efa5e017f2ab587c0ff4a2a4c26c6a70d7696a7c56c637dc]]>
            </line>
            <line>
              <![CDATA[Response status code: 404]]>
            </line>
            <line>
              <![CDATA[Response body: ]]>
            </line>
          </reporter-output>
        </test-method> <!-- updateUser -->
      </class> <!-- com.api.tests.UsersTest -->
    </test> <!-- Default test -->
  </suite> <!-- Default suite -->
</testng-results>
